<svg width="245" height="70" xmlns="http://www.w3.org/2000/svg">
	<defs id="SvgjsDefs1010"></defs>
	<g id="SvgjsG1011" featurekey="root" fill="#ffffff"></g>
	<g id="SvgjsG1012" featurekey="symbol1" fill="#043532" transform="matrix(0.7766255272777629,0,0,0.7766255272777629,-3.83128599230979,0.6846650011824966)">
		<g transform="translate(0,-952.36218)">
			<path style="text-indent:0;text-transform:none;direction:ltr;block-progression:tb;baseline-shift:baseline;color:;enable-background:accumulate;"
			 d="m 49.743299,964.36922 a 2.0001999,2.0001999 0 0 0 -0.6562,0.21875 L 6.0870979,986.58793 a 2.0001999,2.0001999 0 0 0 0,3.5625 l 43.0000011,22.00007 a 2.0001999,2.0001999 0 0 0 1.8124,0 l 42.999997,-22.00007 a 2.0001999,2.0001999 0 0 0 0,-3.5625 L 50.899499,964.58797 a 2.0001999,2.0001999 0 0 0 -1.1562,-0.21875 z m 0.25,4.25 38.624997,19.75001 -38.624997,19.74997 -38.625001,-19.74997 38.625001,-19.75001 z M 6.9307979,1000.3379 a 2.0001999,2.0001999 0 0 0 -0.8437,3.8125 l 43.0000011,22.0001 a 2.0001999,2.0001999 0 0 0 1.8124,0 l 42.999997,-22.0001 a 2.0001999,2.0001999 0 1 0 -1.8124,-3.5625 l -42.093797,21.5313 -42.0938011,-21.5313 a 2.0001999,2.0001999 0 0 0 -0.9687,-0.25 z m 0,14.0001 a 2.0001999,2.0001999 0 0 0 -0.8437,3.8125 l 43.0000011,22 a 2.0001999,2.0001999 0 0 0 1.8124,0 l 42.999997,-22 a 2.0001999,2.0001999 0 1 0 -1.8124,-3.5625 L 49.993299,1036.1192 7.8994979,1014.588 a 2.0001999,2.0001999 0 0 0 -0.9687,-0.25 z"
			 fill="#043532" fill-opacity="1" stroke="none" marker="none" visibility="visible" display="inline" overflow="visible"></path>
		</g>
	</g>
	<g id="SvgjsG1013" featurekey="text1" fill="#043532" transform="matrix(4.184099817365409,0,0,4.184099817365409,88.0753119292669,-14.435137586454154)">
		<path d="M0.52 9.36 c0 -2.24 1.1 -3.52 3.24 -3.52 s3.24 1.28 3.24 3.52 l0 0.44 l-2.08 0 l0 -0.58 c0 -1 -0.4 -1.38 -1.1 -1.38 s-1.1 0.38 -1.1 1.38 c0 1.02 0.44 1.78 1.88 3.04 c1.84 1.62 2.42 2.78 2.42 4.38 c0 2.24 -1.12 3.52 -3.28 3.52 s-3.28 -1.28 -3.28 -3.52 l0 -0.86 l2.08 0 l0 1 c0 1 0.44 1.36 1.14 1.36 s1.14 -0.36 1.14 -1.36 c0 -1.02 -0.44 -1.78 -1.88 -3.04 c-1.84 -1.62 -2.42 -2.78 -2.42 -4.38 z M7.640000000000001 8 l0 -2 l6.8 0 l0 2 l-2.3 0 l0 12 l-2.2 0 l0 -12 l-2.3 0 z M17.42 9.22 l0 7.56 c0 1 0.44 1.38 1.14 1.38 s1.14 -0.38 1.14 -1.38 l0 -7.56 c0 -1 -0.44 -1.38 -1.14 -1.38 s-1.14 0.38 -1.14 1.38 z M15.22 16.64 l0 -7.28 c0 -2.24 1.18 -3.52 3.34 -3.52 s3.34 1.28 3.34 3.52 l0 7.28 c0 2.24 -1.18 3.52 -3.34 3.52 s-3.34 -1.28 -3.34 -3.52 z M23.220000000000002 6 l2.2 0 l0 10.8 c0 1 0.44 1.36 1.14 1.36 s1.14 -0.36 1.14 -1.36 l0 -10.8 l2.08 0 l0 10.66 c0 2.24 -1.12 3.52 -3.28 3.52 s-3.28 -1.28 -3.28 -3.52 l0 -10.66 z M30.640000000000004 8 l0 -2 l6.8 0 l0 2 l-2.3 0 l0 12 l-2.2 0 l0 -12 l-2.3 0 z"></path>
	</g>
</svg>
